{"period":"all","count":200,"total":871,"offset":0,"limit":200,"hasMore":true,"data":[{"customerName":"WELLS FARGO MASTER ACCOUNT","totVuln":911386,"potVuln":1479073,"notVuln":5669643,"affectedFNCount":124},{"customerName":"HOME DEPOT USA, INC.","totVuln":593339,"potVuln":797662,"notVuln":1384383,"affectedFNCount":140},{"customerName":"HCA HEALTHCARE","totVuln":581172,"potVuln":885731,"notVuln":4078988,"affectedFNCount":272},{"customerName":"MORGAN STANLEY - GLOBAL","totVuln":531722,"potVuln":729517,"notVuln":2314055,"affectedFNCount":178},{"customerName":"NAVY FEDERAL CREDIT UNION","totVuln":315391,"potVuln":303194,"notVuln":288816,"affectedFNCount":178},{"customerName":"GEISINGER HEALTH SYSTEM FOUNDATION","totVuln":228330,"potVuln":211879,"notVuln":262640,"affectedFNCount":162},{"customerName":"PIEDMONT HOSPITAL INC","totVuln":195624,"potVuln":298984,"notVuln":418176,"affectedFNCount":175},{"customerName":"COSTCO WHOLESALE","totVuln":194058,"potVuln":219162,"notVuln":1242059,"affectedFNCount":162},{"customerName":"VERIZON ITNUC","totVuln":180788,"potVuln":241645,"notVuln":898484,"affectedFNCount":183},{"customerName":"NYC HEALTH AND HOSPITALS CORPORATION","totVuln":177652,"potVuln":301139,"notVuln":353050,"affectedFNCount":220},{"customerName":"CARNIVAL CRUISE LINES","totVuln":137479,"potVuln":262744,"notVuln":559144,"affectedFNCount":188},{"customerName":"FORD","totVuln":136453,"potVuln":432126,"notVuln":2694278,"affectedFNCount":245},{"customerName":"MERCK SHARP & DOHME CORPORATION","totVuln":132872,"potVuln":234781,"notVuln":1295105,"affectedFNCount":202},{"customerName":"TRUIST","totVuln":120359,"potVuln":183480,"notVuln":1189089,"affectedFNCount":169},{"customerName":"TELECOM ITALIA","totVuln":117390,"potVuln":334103,"notVuln":2949555,"affectedFNCount":203},{"customerName":"VIHA","totVuln":117368,"potVuln":153549,"notVuln":263195,"affectedFNCount":125},{"customerName":"COLES GROUP LTD","totVuln":109349,"potVuln":323494,"notVuln":1325593,"affectedFNCount":183},{"customerName":"SCOTIABANK","totVuln":84274,"potVuln":184606,"notVuln":1466783,"affectedFNCount":238},{"customerName":"BJC HEALTH SYSTEM","totVuln":82695,"potVuln":102859,"notVuln":111655,"affectedFNCount":153},{"customerName":"BRISTOL MYERS SQUIBB","totVuln":81949,"potVuln":144147,"notVuln":408826,"affectedFNCount":193},{"customerName":"ARAB NATIONAL BANK","totVuln":76488,"potVuln":96143,"notVuln":359552,"affectedFNCount":166},{"customerName":"ODIDO","totVuln":73413,"potVuln":293255,"notVuln":1424874,"affectedFNCount":75},{"customerName":"HIGHWAY PATROL CALIFORNIA","totVuln":60724,"potVuln":56465,"notVuln":0,"affectedFNCount":14},{"customerName":"TEXAS DEPT OF PUBLIC SAFETY","totVuln":57420,"potVuln":60947,"notVuln":372688,"affectedFNCount":112},{"customerName":"TELE 2","totVuln":56295,"potVuln":223877,"notVuln":2979736,"affectedFNCount":133},{"customerName":"QUEENSLAND HEALTH","totVuln":54974,"potVuln":252196,"notVuln":1467395,"affectedFNCount":142},{"customerName":"U S DEPARTMENT OF LABOR","totVuln":54149,"potVuln":69890,"notVuln":160947,"affectedFNCount":150},{"customerName":"JOHNSON & JOHNSON","totVuln":53624,"potVuln":96395,"notVuln":1273468,"affectedFNCount":195},{"customerName":"SANFORD HEALTH","totVuln":46882,"potVuln":89892,"notVuln":251840,"affectedFNCount":188},{"customerName":"ACME CORPORATION","totVuln":46800,"potVuln":45800,"notVuln":239141,"affectedFNCount":110},{"customerName":"COGNIZANT TECHNOLOGY SOLUTIONS INDIA PVT LTD","totVuln":44459,"potVuln":122652,"notVuln":717006,"affectedFNCount":226},{"customerName":"NORTHERN TRUST BANK","totVuln":43824,"potVuln":38893,"notVuln":124163,"affectedFNCount":150},{"customerName":"BROWARD HEALTH","totVuln":42558,"potVuln":58536,"notVuln":48800,"affectedFNCount":94},{"customerName":"VIACOM INC","totVuln":42012,"potVuln":87982,"notVuln":318635,"affectedFNCount":204},{"customerName":"CLARO BRAZIL","totVuln":41907,"potVuln":53613,"notVuln":812740,"affectedFNCount":110},{"customerName":"UNITED HEALTH GROUP","totVuln":41309,"potVuln":159958,"notVuln":1178874,"affectedFNCount":160},{"customerName":"CELCOM","totVuln":39899,"potVuln":68517,"notVuln":723519,"affectedFNCount":107},{"customerName":"DIGNITY HEALTH","totVuln":39418,"potVuln":64622,"notVuln":240576,"affectedFNCount":177},{"customerName":"FEDEX","totVuln":39036,"potVuln":551342,"notVuln":8754375,"affectedFNCount":192},{"customerName":"JPMORGAN CHASE & CO.","totVuln":38898,"potVuln":718853,"notVuln":6434862,"affectedFNCount":176},{"customerName":"MICHIGAN MEDICINE","totVuln":35902,"potVuln":51267,"notVuln":220138,"affectedFNCount":107},{"customerName":"CATHOLIC HEALTH INITIATIVES","totVuln":33343,"potVuln":209126,"notVuln":1208377,"affectedFNCount":259},{"customerName":"BANCO DE CREDITO DEL PERU","totVuln":32959,"potVuln":42605,"notVuln":179792,"affectedFNCount":116},{"customerName":"BHARTI AIRTEL - CEN","totVuln":31902,"potVuln":278686,"notVuln":875550,"affectedFNCount":71},{"customerName":"MASS GENERAL BRIGHAM","totVuln":31264,"potVuln":68066,"notVuln":431871,"affectedFNCount":198},{"customerName":"CITY OF HOUSTON","totVuln":30405,"potVuln":37884,"notVuln":229197,"affectedFNCount":206},{"customerName":"SOFTBANK CORPORATION","totVuln":28969,"potVuln":40946,"notVuln":629252,"affectedFNCount":111},{"customerName":"PROVINCIAL ELECTRICITY AUTHORITY","totVuln":28822,"potVuln":23749,"notVuln":213201,"affectedFNCount":91},{"customerName":"CHARLES SCHWAB","totVuln":28565,"potVuln":57340,"notVuln":427373,"affectedFNCount":115},{"customerName":"ABBVIE INC","totVuln":28345,"potVuln":78933,"notVuln":509536,"affectedFNCount":174},{"customerName":"HOUSE OF COMMONS","totVuln":27836,"potVuln":48256,"notVuln":163876,"affectedFNCount":115},{"customerName":"ROGERS CABLE","totVuln":27592,"potVuln":97669,"notVuln":849998,"affectedFNCount":198},{"customerName":"TELE 2 SWEDEN","totVuln":22968,"potVuln":239454,"notVuln":701268,"affectedFNCount":141},{"customerName":"DOE HQ","totVuln":22688,"potVuln":45438,"notVuln":185900,"affectedFNCount":127},{"customerName":"COUNTY OF ADA","totVuln":21969,"potVuln":25234,"notVuln":42250,"affectedFNCount":95},{"customerName":"BANK OF AMERICA GLOBAL ENTERPRISE","totVuln":21069,"potVuln":364528,"notVuln":4421434,"affectedFNCount":148},{"customerName":"SFR","totVuln":19851,"potVuln":89077,"notVuln":542249,"affectedFNCount":105},{"customerName":"DSV AS","totVuln":19528,"potVuln":290860,"notVuln":2669663,"affectedFNCount":237},{"customerName":"HCSC","totVuln":19273,"potVuln":27326,"notVuln":168620,"affectedFNCount":127},{"customerName":"EMIRATES INTEGRATED TELECOMMUNICATIONS COMPANY","totVuln":18692,"potVuln":55495,"notVuln":496553,"affectedFNCount":144},{"customerName":"OFFICE OF THE COMPTROLLER OF THE CURRENCY","totVuln":17753,"potVuln":22137,"notVuln":71577,"affectedFNCount":127},{"customerName":"TOYOTA MANUFACTURING","totVuln":17157,"potVuln":155478,"notVuln":886227,"affectedFNCount":178},{"customerName":"WESTNETZ GMBH","totVuln":17072,"potVuln":94196,"notVuln":1154996,"affectedFNCount":121},{"customerName":"INFOSYS LTD","totVuln":16978,"potVuln":27064,"notVuln":496263,"affectedFNCount":123},{"customerName":"ONCOR","totVuln":16321,"potVuln":24813,"notVuln":107328,"affectedFNCount":108},{"customerName":"FOOD & DRUG ADMINISTRATION","totVuln":15620,"potVuln":41376,"notVuln":235063,"affectedFNCount":200},{"customerName":"TURKIYE CUMHURIYETI ZIRAAT BANKASI A S","totVuln":15020,"potVuln":165503,"notVuln":1544011,"affectedFNCount":88},{"customerName":"NUUDAY","totVuln":14894,"potVuln":341671,"notVuln":3142491,"affectedFNCount":90},{"customerName":"MEDIACOM CALIFORNIA LLC 123","totVuln":14445,"potVuln":32394,"notVuln":311801,"affectedFNCount":159},{"customerName":"DIGICEL","totVuln":13297,"potVuln":17742,"notVuln":206847,"affectedFNCount":139},{"customerName":"BARCLAYS EMEAR","totVuln":13010,"potVuln":80180,"notVuln":397337,"affectedFNCount":193},{"customerName":"TURKCELL","totVuln":12924,"potVuln":25903,"notVuln":277888,"affectedFNCount":120},{"customerName":"TOT PUBLIC CO., LTD","totVuln":12810,"potVuln":20360,"notVuln":286518,"affectedFNCount":78},{"customerName":"ROYAL BANK OF CANADA GLOBAL","totVuln":12008,"potVuln":34939,"notVuln":970316,"affectedFNCount":141},{"customerName":"MCNC","totVuln":11831,"potVuln":22152,"notVuln":272397,"affectedFNCount":110},{"customerName":"LPL FINANCIAL LLC","totVuln":11580,"potVuln":19998,"notVuln":108369,"affectedFNCount":173},{"customerName":"SAUDI ELECTRICITY COMPANY","totVuln":11249,"potVuln":8303,"notVuln":48035,"affectedFNCount":174},{"customerName":"CAT TELECOM PUBLIC CO.,LTD","totVuln":11210,"potVuln":38146,"notVuln":335866,"affectedFNCount":149},{"customerName":"CLARO PUERTO RICO","totVuln":11094,"potVuln":30424,"notVuln":212938,"affectedFNCount":103},{"customerName":"IQVIA INC","totVuln":10957,"potVuln":35569,"notVuln":227749,"affectedFNCount":187},{"customerName":"GLOBALFOUNDRIES US INC","totVuln":10948,"potVuln":25754,"notVuln":154040,"affectedFNCount":187},{"customerName":"WEXNET AB","totVuln":10890,"potVuln":75996,"notVuln":397302,"affectedFNCount":120},{"customerName":"VTB BANK OJSC","totVuln":10770,"potVuln":36180,"notVuln":289080,"affectedFNCount":111},{"customerName":"BERUFSGENOSSENSCHAFT FUER GESUNDHEITSDIENST UND WOHLFAHRTSPFLEGE","totVuln":10656,"potVuln":5610,"notVuln":84,"affectedFNCount":31},{"customerName":"ETIHAD ETISALAT","totVuln":10482,"potVuln":20890,"notVuln":227432,"affectedFNCount":145},{"customerName":"TELMEX RED NACIONAL","totVuln":10204,"potVuln":39103,"notVuln":124167,"affectedFNCount":20},{"customerName":"COUPANG","totVuln":10012,"potVuln":245473,"notVuln":1365536,"affectedFNCount":131},{"customerName":"FASTWEB - FTS/NOS/TAS CONTRACT","totVuln":9904,"potVuln":33349,"notVuln":278220,"affectedFNCount":177},{"customerName":"WAL-MART INTL","totVuln":9747,"potVuln":329086,"notVuln":3175540,"affectedFNCount":154},{"customerName":"OTE","totVuln":9648,"potVuln":22149,"notVuln":337001,"affectedFNCount":156},{"customerName":"UMC - UKRAINIAN MOBILE COMMUNICATIONS","totVuln":9538,"potVuln":14091,"notVuln":147931,"affectedFNCount":59},{"customerName":"RIO TINTO LTD","totVuln":9336,"potVuln":89989,"notVuln":642618,"affectedFNCount":228},{"customerName":"LINKNET","totVuln":9136,"potVuln":16778,"notVuln":181431,"affectedFNCount":102},{"customerName":"MONARCH HEALTHCARE","totVuln":8640,"potVuln":10681,"notVuln":6755,"affectedFNCount":135},{"customerName":"VERIZON WIRELESS","totVuln":8213,"potVuln":54980,"notVuln":1044297,"affectedFNCount":79},{"customerName":"VODAFONE PORTUGAL","totVuln":8018,"potVuln":211994,"notVuln":1933021,"affectedFNCount":204},{"customerName":"ALTICE USA","totVuln":7947,"potVuln":66122,"notVuln":668367,"affectedFNCount":180},{"customerName":"TELGUA","totVuln":7905,"potVuln":19227,"notVuln":188156,"affectedFNCount":165},{"customerName":"CTBC BANK CO LTD","totVuln":7627,"potVuln":47723,"notVuln":482473,"affectedFNCount":127},{"customerName":"WAL-MART CSPC","totVuln":7462,"potVuln":301938,"notVuln":2918806,"affectedFNCount":165},{"customerName":"BANCO ITAU BRAZIL","totVuln":7155,"potVuln":44688,"notVuln":279705,"affectedFNCount":218},{"customerName":"DUKE ENERGY","totVuln":6639,"potVuln":227191,"notVuln":1873243,"affectedFNCount":179},{"customerName":"VZW MITG YR 1","totVuln":6576,"potVuln":2196,"notVuln":0,"affectedFNCount":2},{"customerName":"LIBERTY LATAM","totVuln":6480,"potVuln":17055,"notVuln":140993,"affectedFNCount":219},{"customerName":"NOS COMUNICACOES","totVuln":6479,"potVuln":20177,"notVuln":224338,"affectedFNCount":130},{"customerName":"MIGROS-GENOSSENSCHAFTS-BUND","totVuln":6326,"potVuln":286915,"notVuln":1088673,"affectedFNCount":143},{"customerName":"RIO TINTO OPERATIONS","totVuln":5828,"potVuln":136703,"notVuln":1141871,"affectedFNCount":245},{"customerName":"KPN/RWS","totVuln":5797,"potVuln":292291,"notVuln":762969,"affectedFNCount":207},{"customerName":"STATE OF NORTH CAROLINA","totVuln":5793,"potVuln":42629,"notVuln":619922,"affectedFNCount":186},{"customerName":"NYU LANGONE MEDICAL CENTER","totVuln":5675,"potVuln":80563,"notVuln":413604,"affectedFNCount":162},{"customerName":"DISNEY CORPORATION","totVuln":5469,"potVuln":225478,"notVuln":1876808,"affectedFNCount":185},{"customerName":"VERIZON ENSE","totVuln":5423,"potVuln":68271,"notVuln":500552,"affectedFNCount":86},{"customerName":"PACIFIC GAS AND ELECTRIC","totVuln":5095,"potVuln":60805,"notVuln":666772,"affectedFNCount":124},{"customerName":"CONSOLIDATED COMMUNICATIONS","totVuln":5065,"potVuln":20737,"notVuln":131520,"affectedFNCount":111},{"customerName":"VIRGIN MEDIA FINANCE PLC","totVuln":4923,"potVuln":18581,"notVuln":157941,"affectedFNCount":172},{"customerName":"CERNER CORPORATION","totVuln":4904,"potVuln":66533,"notVuln":540619,"affectedFNCount":173},{"customerName":"AXTEL SAB DE CV","totVuln":4799,"potVuln":23521,"notVuln":168552,"affectedFNCount":160},{"customerName":"PRORAIL VERKEERSLEIDING NOORD","totVuln":4633,"potVuln":32984,"notVuln":268209,"affectedFNCount":189},{"customerName":"PPG INDUSTRIES INC","totVuln":4541,"potVuln":73916,"notVuln":447131,"affectedFNCount":105},{"customerName":"HSBC","totVuln":4530,"potVuln":355097,"notVuln":3734014,"affectedFNCount":153},{"customerName":"STC KSA-IT NETWORK","totVuln":4097,"potVuln":16881,"notVuln":232861,"affectedFNCount":176},{"customerName":"TIM BRASIL","totVuln":4020,"potVuln":54372,"notVuln":151745,"affectedFNCount":108},{"customerName":"PSA CORPORATION LTD","totVuln":3997,"potVuln":40458,"notVuln":600337,"affectedFNCount":218},{"customerName":"VALE SA","totVuln":3989,"potVuln":19348,"notVuln":78946,"affectedFNCount":136},{"customerName":"NOVARTIS PHARMA AG","totVuln":3968,"potVuln":101619,"notVuln":729979,"affectedFNCount":167},{"customerName":"AIRPORTS OF THAILAND PUBLIC COMPANY LIMITED","totVuln":3883,"potVuln":14357,"notVuln":79993,"affectedFNCount":116},{"customerName":"AT&T IT-CORE","totVuln":3834,"potVuln":29102,"notVuln":337774,"affectedFNCount":112},{"customerName":"KAISER FOUNDATION HEALTH PLAN INC","totVuln":3803,"potVuln":302676,"notVuln":5175450,"affectedFNCount":142},{"customerName":"TELENOR NORWAY- NORKRING","totVuln":3792,"potVuln":4222,"notVuln":61739,"affectedFNCount":85},{"customerName":"ADNOC GROUP","totVuln":3766,"potVuln":71059,"notVuln":690209,"affectedFNCount":144},{"customerName":"ENTEL BOLIVIA IP NGN","totVuln":3745,"potVuln":12004,"notVuln":86429,"affectedFNCount":173},{"customerName":"INTESA SANPAOLO","totVuln":3662,"potVuln":74169,"notVuln":744264,"affectedFNCount":167},{"customerName":"POSTE ITALIANE","totVuln":3574,"potVuln":18088,"notVuln":175206,"affectedFNCount":126},{"customerName":"TELIA CARRIER","totVuln":3570,"potVuln":11166,"notVuln":100830,"affectedFNCount":80},{"customerName":"OI","totVuln":3520,"potVuln":23368,"notVuln":61067,"affectedFNCount":145},{"customerName":"ATT MOBILITY","totVuln":3405,"potVuln":53325,"notVuln":66250,"affectedFNCount":78},{"customerName":"UNILEVER","totVuln":3306,"potVuln":86394,"notVuln":825612,"affectedFNCount":80},{"customerName":"GENERAL MOTORS GLOBAL","totVuln":3244,"potVuln":351671,"notVuln":2694493,"affectedFNCount":184},{"customerName":"TELKOMSEL","totVuln":3242,"potVuln":9041,"notVuln":114808,"affectedFNCount":95},{"customerName":"COMPANHIA ENERGETICA DE MINAS GERAIS CEMIG","totVuln":3226,"potVuln":12921,"notVuln":135542,"affectedFNCount":138},{"customerName":"UNITEL","totVuln":3170,"potVuln":5001,"notVuln":75901,"affectedFNCount":90},{"customerName":"KRUNGTHAI COMPUTER SERVICES COMPANY LTD","totVuln":3166,"potVuln":44051,"notVuln":371759,"affectedFNCount":143},{"customerName":"IBERDROLA SA","totVuln":3114,"potVuln":27744,"notVuln":192587,"affectedFNCount":100},{"customerName":"VODAFONE GREECE","totVuln":3026,"potVuln":14367,"notVuln":103947,"affectedFNCount":141},{"customerName":"SKY NETWORK SERVICES","totVuln":3023,"potVuln":50310,"notVuln":419041,"affectedFNCount":237},{"customerName":"NETWORK RAIL LTD","totVuln":3020,"potVuln":48351,"notVuln":321109,"affectedFNCount":134},{"customerName":"XL AXIATA INDONESIA","totVuln":2956,"potVuln":29133,"notVuln":186931,"affectedFNCount":159},{"customerName":"VERSATEL SUED GMBH","totVuln":2891,"potVuln":391022,"notVuln":4780759,"affectedFNCount":104},{"customerName":"AMAZON","totVuln":2868,"potVuln":78210,"notVuln":1006746,"affectedFNCount":80},{"customerName":"VODACOM CDN","totVuln":2847,"potVuln":3892,"notVuln":53220,"affectedFNCount":122},{"customerName":"PROVIDENCE/ST.JOSEPH","totVuln":2840,"potVuln":57437,"notVuln":564277,"affectedFNCount":164},{"customerName":"DEUTSCHE BAHN AG","totVuln":2813,"potVuln":318826,"notVuln":3030501,"affectedFNCount":99},{"customerName":"STANELY WORKS","totVuln":2772,"potVuln":70264,"notVuln":298029,"affectedFNCount":127},{"customerName":"TELEFONICA EL SALVADOR","totVuln":2769,"potVuln":7770,"notVuln":61558,"affectedFNCount":63},{"customerName":"VISA","totVuln":2737,"potVuln":90197,"notVuln":1001378,"affectedFNCount":139},{"customerName":"BHARTI AIRTEL - MPLS","totVuln":2729,"potVuln":84153,"notVuln":258536,"affectedFNCount":90},{"customerName":"OREGON DOIT","totVuln":2658,"potVuln":61179,"notVuln":249100,"affectedFNCount":120},{"customerName":"BOEHRINGER INGELHEIM GMBH","totVuln":2598,"potVuln":19920,"notVuln":458706,"affectedFNCount":51},{"customerName":"MGM RESORTS INTERNATIONAL","totVuln":2592,"potVuln":404001,"notVuln":3389198,"affectedFNCount":148},{"customerName":"TERNA","totVuln":2587,"potVuln":35953,"notVuln":191205,"affectedFNCount":129},{"customerName":"YPF SA","totVuln":2566,"potVuln":28557,"notVuln":254135,"affectedFNCount":194},{"customerName":"PETROBRAS BRAZIL","totVuln":2546,"potVuln":76036,"notVuln":540804,"affectedFNCount":165},{"customerName":"LIBERTY GLOBAL EUROPE NV","totVuln":2532,"potVuln":8052,"notVuln":113609,"affectedFNCount":156},{"customerName":"NORTHWELL HEALTH","totVuln":2521,"potVuln":68251,"notVuln":642514,"affectedFNCount":191},{"customerName":"MICROSOFT AZURE","totVuln":2521,"potVuln":1090254,"notVuln":13072978,"affectedFNCount":90},{"customerName":"CHINA UNIONPAY DATA SERVICES COMPANY LTD","totVuln":2475,"potVuln":7845,"notVuln":65012,"affectedFNCount":106},{"customerName":"STATENS IT","totVuln":2443,"potVuln":57217,"notVuln":351295,"affectedFNCount":104},{"customerName":"CLARO SA","totVuln":2411,"potVuln":14441,"notVuln":171820,"affectedFNCount":205},{"customerName":"THERMO FISHER SCIENTIFIC","totVuln":2402,"potVuln":93031,"notVuln":546307,"affectedFNCount":126},{"customerName":"PCCW GLOBAL","totVuln":2297,"potVuln":12348,"notVuln":154086,"affectedFNCount":117},{"customerName":"METROLINX","totVuln":2263,"potVuln":22386,"notVuln":184666,"affectedFNCount":144},{"customerName":"AXA","totVuln":2251,"potVuln":36172,"notVuln":241115,"affectedFNCount":195},{"customerName":"THIRDPACKET/CMS","totVuln":2188,"potVuln":5681,"notVuln":4279,"affectedFNCount":82},{"customerName":"MTN NIGERIA","totVuln":2186,"potVuln":12504,"notVuln":89749,"affectedFNCount":177},{"customerName":"WEBANK","totVuln":2169,"potVuln":5154,"notVuln":34035,"affectedFNCount":56},{"customerName":"SAUDI TELECOM PUBLIC SECTOR","totVuln":2112,"potVuln":10774,"notVuln":113406,"affectedFNCount":180},{"customerName":"FIS GLOBAL","totVuln":2105,"potVuln":71496,"notVuln":784731,"affectedFNCount":209},{"customerName":"BANK OF NEW YORK MELLON","totVuln":2070,"potVuln":80791,"notVuln":465172,"affectedFNCount":177},{"customerName":"BOEING DISTRIBUTION SERVICES","totVuln":2018,"potVuln":4624,"notVuln":31743,"affectedFNCount":161},{"customerName":"NBC (NOS)","totVuln":1983,"potVuln":37917,"notVuln":460557,"affectedFNCount":194},{"customerName":"SMART COMM","totVuln":1956,"potVuln":4074,"notVuln":41306,"affectedFNCount":100},{"customerName":"DELTA TECHNOLOGY","totVuln":1955,"potVuln":70389,"notVuln":544712,"affectedFNCount":144},{"customerName":"YOOX NET-A-PORTER GROUP SPA","totVuln":1938,"potVuln":8877,"notVuln":39288,"affectedFNCount":85},{"customerName":"PLDT - TNT","totVuln":1937,"potVuln":30030,"notVuln":62915,"affectedFNCount":142},{"customerName":"TNSI BACKBONE","totVuln":1924,"potVuln":115610,"notVuln":912592,"affectedFNCount":133},{"customerName":"OPTUS CONSUMER MOBILE","totVuln":1919,"potVuln":69733,"notVuln":288721,"affectedFNCount":104},{"customerName":"ALLINA HEALTH SYSTEM","totVuln":1881,"potVuln":33575,"notVuln":388501,"affectedFNCount":114},{"customerName":"BT WIFI","totVuln":1848,"potVuln":139194,"notVuln":432959,"affectedFNCount":107},{"customerName":"FISERV","totVuln":1834,"potVuln":81939,"notVuln":705678,"affectedFNCount":129},{"customerName":"NYPD","totVuln":1827,"potVuln":25577,"notVuln":232234,"affectedFNCount":157},{"customerName":"TELEKOM MALAYSIA","totVuln":1823,"potVuln":10295,"notVuln":64546,"affectedFNCount":109},{"customerName":"VODAFONE IRELAND","totVuln":1812,"potVuln":5790,"notVuln":37416,"affectedFNCount":110},{"customerName":"FIRST NATIONAL BANK","totVuln":1811,"potVuln":20432,"notVuln":196017,"affectedFNCount":170},{"customerName":"EXXON MOBIL - GLOBAL","totVuln":1796,"potVuln":124912,"notVuln":1147951,"affectedFNCount":157},{"customerName":"CTTI","totVuln":1778,"potVuln":13668,"notVuln":60866,"affectedFNCount":171},{"customerName":"SAMSUNG SEMICONDUCTOR, INC.","totVuln":1762,"potVuln":12671,"notVuln":102643,"affectedFNCount":89},{"customerName":"TELEFONICA MOVILES MEXICO","totVuln":1703,"potVuln":8399,"notVuln":35380,"affectedFNCount":118},{"customerName":"FIDELITY FTG","totVuln":1695,"potVuln":26632,"notVuln":649534,"affectedFNCount":86},{"customerName":"ENEL","totVuln":1692,"potVuln":46890,"notVuln":354858,"affectedFNCount":132},{"customerName":"ALINMA BANK","totVuln":1644,"potVuln":1596,"notVuln":32616,"affectedFNCount":56}],"lastUpdated":"2026-04-27T17:15:49.240Z"}