{"period":"2025","count":200,"total":871,"offset":0,"limit":200,"hasMore":true,"data":[{"customerName":"WELLS FARGO MASTER ACCOUNT","totVuln":679748,"potVuln":1099607,"notVuln":3780095,"affectedFNCount":121},{"customerName":"HOME DEPOT USA, INC.","totVuln":456127,"potVuln":635558,"notVuln":935328,"affectedFNCount":136},{"customerName":"MORGAN STANLEY - GLOBAL","totVuln":348264,"potVuln":485446,"notVuln":1473987,"affectedFNCount":175},{"customerName":"HCA HEALTHCARE","totVuln":297916,"potVuln":504416,"notVuln":2698935,"affectedFNCount":268},{"customerName":"NAVY FEDERAL CREDIT UNION","totVuln":210330,"potVuln":201387,"notVuln":174890,"affectedFNCount":173},{"customerName":"GEISINGER HEALTH SYSTEM FOUNDATION","totVuln":152833,"potVuln":142139,"notVuln":176192,"affectedFNCount":160},{"customerName":"NYC HEALTH AND HOSPITALS CORPORATION","totVuln":142024,"potVuln":234986,"notVuln":234626,"affectedFNCount":214},{"customerName":"PIEDMONT HOSPITAL INC","totVuln":130132,"potVuln":200381,"notVuln":281943,"affectedFNCount":173},{"customerName":"COSTCO WHOLESALE","totVuln":122155,"potVuln":142138,"notVuln":826532,"affectedFNCount":156},{"customerName":"VERIZON ITNUC","totVuln":116094,"potVuln":178961,"notVuln":798294,"affectedFNCount":180},{"customerName":"FORD","totVuln":92524,"potVuln":299098,"notVuln":1792235,"affectedFNCount":240},{"customerName":"CARNIVAL CRUISE LINES","totVuln":91797,"potVuln":182858,"notVuln":387863,"affectedFNCount":186},{"customerName":"MERCK SHARP & DOHME CORPORATION","totVuln":88584,"potVuln":158131,"notVuln":863711,"affectedFNCount":202},{"customerName":"TRUIST","totVuln":84095,"potVuln":134662,"notVuln":783788,"affectedFNCount":159},{"customerName":"VIHA","totVuln":78626,"potVuln":106858,"notVuln":173880,"affectedFNCount":123},{"customerName":"TELECOM ITALIA","totVuln":78573,"potVuln":218941,"notVuln":1960392,"affectedFNCount":199},{"customerName":"COLES GROUP LTD","totVuln":73018,"potVuln":216042,"notVuln":878764,"affectedFNCount":181},{"customerName":"BJC HEALTH SYSTEM","totVuln":66303,"potVuln":83221,"notVuln":97821,"affectedFNCount":152},{"customerName":"SCOTIABANK","totVuln":56964,"potVuln":128090,"notVuln":970218,"affectedFNCount":236},{"customerName":"BRISTOL MYERS SQUIBB","totVuln":55645,"potVuln":99239,"notVuln":272308,"affectedFNCount":190},{"customerName":"ARAB NATIONAL BANK","totVuln":50996,"potVuln":63930,"notVuln":238975,"affectedFNCount":164},{"customerName":"ODIDO","totVuln":49026,"potVuln":202041,"notVuln":951541,"affectedFNCount":74},{"customerName":"HIGHWAY PATROL CALIFORNIA","totVuln":40103,"potVuln":40038,"notVuln":0,"affectedFNCount":14},{"customerName":"DIGNITY HEALTH","totVuln":39418,"potVuln":64622,"notVuln":240576,"affectedFNCount":177},{"customerName":"TELE 2","totVuln":38399,"potVuln":155321,"notVuln":2011460,"affectedFNCount":130},{"customerName":"TEXAS DEPT OF PUBLIC SAFETY","totVuln":38236,"potVuln":44932,"notVuln":232559,"affectedFNCount":110},{"customerName":"U S DEPARTMENT OF LABOR","totVuln":37681,"potVuln":49542,"notVuln":106957,"affectedFNCount":148},{"customerName":"QUEENSLAND HEALTH","totVuln":36814,"potVuln":167289,"notVuln":962834,"affectedFNCount":140},{"customerName":"ACME CORPORATION","totVuln":33480,"potVuln":32824,"notVuln":162387,"affectedFNCount":110},{"customerName":"NORTHERN TRUST BANK","totVuln":32120,"potVuln":30593,"notVuln":83070,"affectedFNCount":147},{"customerName":"COGNIZANT TECHNOLOGY SOLUTIONS INDIA PVT LTD","totVuln":29966,"potVuln":81897,"notVuln":475144,"affectedFNCount":224},{"customerName":"JOHNSON & JOHNSON","totVuln":29814,"potVuln":54704,"notVuln":832104,"affectedFNCount":193},{"customerName":"CLARO BRAZIL","totVuln":28606,"potVuln":36622,"notVuln":550684,"affectedFNCount":105},{"customerName":"CHARLES SCHWAB","totVuln":28506,"potVuln":53674,"notVuln":284374,"affectedFNCount":113},{"customerName":"VIACOM INC","totVuln":28291,"potVuln":60135,"notVuln":209369,"affectedFNCount":200},{"customerName":"BROWARD HEALTH","totVuln":27976,"potVuln":38486,"notVuln":32618,"affectedFNCount":92},{"customerName":"UNITED HEALTH GROUP","totVuln":27955,"potVuln":109732,"notVuln":808372,"affectedFNCount":158},{"customerName":"CELCOM","totVuln":26969,"potVuln":45687,"notVuln":488382,"affectedFNCount":104},{"customerName":"SANFORD HEALTH","totVuln":26834,"potVuln":55129,"notVuln":156991,"affectedFNCount":183},{"customerName":"FEDEX","totVuln":26094,"potVuln":375749,"notVuln":5806674,"affectedFNCount":189},{"customerName":"JPMORGAN CHASE & CO.","totVuln":25932,"potVuln":479275,"notVuln":4289908,"affectedFNCount":176},{"customerName":"BANCO DE CREDITO DEL PERU","totVuln":23153,"potVuln":29696,"notVuln":117728,"affectedFNCount":113},{"customerName":"BHARTI AIRTEL - CEN","totVuln":21626,"potVuln":186099,"notVuln":585801,"affectedFNCount":70},{"customerName":"MASS GENERAL BRIGHAM","totVuln":21327,"potVuln":57279,"notVuln":286380,"affectedFNCount":194},{"customerName":"CITY OF HOUSTON","totVuln":20958,"potVuln":28653,"notVuln":151664,"affectedFNCount":200},{"customerName":"DOE HQ","totVuln":20700,"potVuln":38289,"notVuln":125131,"affectedFNCount":125},{"customerName":"SOFTBANK CORPORATION","totVuln":19407,"potVuln":28154,"notVuln":423867,"affectedFNCount":109},{"customerName":"PROVINCIAL ELECTRICITY AUTHORITY","totVuln":19101,"potVuln":15622,"notVuln":140989,"affectedFNCount":89},{"customerName":"HOUSE OF COMMONS","totVuln":18728,"potVuln":32242,"notVuln":107543,"affectedFNCount":89},{"customerName":"ABBVIE INC","totVuln":18683,"potVuln":53318,"notVuln":335678,"affectedFNCount":171},{"customerName":"ROGERS CABLE","totVuln":18441,"potVuln":59497,"notVuln":563556,"affectedFNCount":193},{"customerName":"TOYOTA MANUFACTURING","totVuln":16404,"potVuln":132444,"notVuln":675349,"affectedFNCount":169},{"customerName":"BANK OF AMERICA GLOBAL ENTERPRISE","totVuln":15694,"potVuln":261473,"notVuln":2910525,"affectedFNCount":145},{"customerName":"TELE 2 SWEDEN","totVuln":15312,"potVuln":159636,"notVuln":467512,"affectedFNCount":141},{"customerName":"COUNTY OF ADA","totVuln":14569,"potVuln":16646,"notVuln":27342,"affectedFNCount":93},{"customerName":"SFR","totVuln":13417,"potVuln":58987,"notVuln":364496,"affectedFNCount":102},{"customerName":"DSV AS","totVuln":13051,"potVuln":198084,"notVuln":1748827,"affectedFNCount":233},{"customerName":"EMIRATES INTEGRATED TELECOMMUNICATIONS COMPANY","totVuln":12959,"potVuln":35748,"notVuln":329028,"affectedFNCount":138},{"customerName":"OFFICE OF THE COMPTROLLER OF THE CURRENCY","totVuln":11977,"potVuln":14858,"notVuln":48087,"affectedFNCount":125},{"customerName":"HCSC","totVuln":11899,"potVuln":17620,"notVuln":108417,"affectedFNCount":124},{"customerName":"ROYAL BANK OF CANADA GLOBAL","totVuln":11676,"potVuln":27660,"notVuln":636424,"affectedFNCount":133},{"customerName":"CATHOLIC HEALTH INITIATIVES","totVuln":11544,"potVuln":113878,"notVuln":678023,"affectedFNCount":256},{"customerName":"WESTNETZ GMBH","totVuln":11368,"potVuln":64924,"notVuln":775278,"affectedFNCount":119},{"customerName":"INFOSYS LTD","totVuln":11367,"potVuln":18221,"notVuln":324596,"affectedFNCount":118},{"customerName":"ONCOR","totVuln":10984,"potVuln":16684,"notVuln":71832,"affectedFNCount":105},{"customerName":"FOOD & DRUG ADMINISTRATION","totVuln":10889,"potVuln":29398,"notVuln":157255,"affectedFNCount":196},{"customerName":"GLOBALFOUNDRIES US INC","totVuln":10489,"potVuln":17831,"notVuln":96087,"affectedFNCount":185},{"customerName":"TURKIYE CUMHURIYETI ZIRAAT BANKASI A S","totVuln":10021,"potVuln":114386,"notVuln":1028570,"affectedFNCount":86},{"customerName":"NUUDAY","totVuln":9950,"potVuln":237057,"notVuln":2108426,"affectedFNCount":89},{"customerName":"MEDIACOM CALIFORNIA LLC 123","totVuln":9645,"potVuln":21401,"notVuln":207778,"affectedFNCount":154},{"customerName":"DIGICEL","totVuln":8901,"potVuln":11824,"notVuln":137733,"affectedFNCount":134},{"customerName":"BARCLAYS EMEAR","totVuln":8712,"potVuln":55300,"notVuln":266185,"affectedFNCount":193},{"customerName":"TOT PUBLIC CO., LTD","totVuln":8540,"potVuln":13088,"notVuln":191012,"affectedFNCount":77},{"customerName":"TURKCELL","totVuln":8472,"potVuln":13490,"notVuln":159956,"affectedFNCount":117},{"customerName":"MCNC","totVuln":7845,"potVuln":14865,"notVuln":180949,"affectedFNCount":107},{"customerName":"LPL FINANCIAL LLC","totVuln":7814,"potVuln":13902,"notVuln":73151,"affectedFNCount":171},{"customerName":"MONARCH HEALTHCARE","totVuln":7517,"potVuln":8916,"notVuln":4505,"affectedFNCount":133},{"customerName":"SAUDI ELECTRICITY COMPANY","totVuln":7487,"potVuln":5337,"notVuln":31925,"affectedFNCount":168},{"customerName":"CAT TELECOM PUBLIC CO.,LTD","totVuln":7459,"potVuln":25107,"notVuln":221184,"affectedFNCount":145},{"customerName":"CLARO PUERTO RICO","totVuln":7415,"potVuln":20123,"notVuln":142253,"affectedFNCount":99},{"customerName":"WEXNET AB","totVuln":7260,"potVuln":50664,"notVuln":264868,"affectedFNCount":120},{"customerName":"VTB BANK OJSC","totVuln":7180,"potVuln":24120,"notVuln":192734,"affectedFNCount":111},{"customerName":"BERUFSGENOSSENSCHAFT FUER GESUNDHEITSDIENST UND WOHLFAHRTSPFLEGE","totVuln":7104,"potVuln":3740,"notVuln":56,"affectedFNCount":31},{"customerName":"COUPANG","totVuln":7046,"potVuln":165432,"notVuln":924654,"affectedFNCount":129},{"customerName":"ETIHAD ETISALAT","totVuln":6962,"potVuln":14715,"notVuln":149547,"affectedFNCount":141},{"customerName":"TELMEX RED NACIONAL","totVuln":6820,"potVuln":26094,"notVuln":82900,"affectedFNCount":19},{"customerName":"IQVIA INC","totVuln":6706,"potVuln":20948,"notVuln":136610,"affectedFNCount":184},{"customerName":"FASTWEB - FTS/NOS/TAS CONTRACT","totVuln":6636,"potVuln":22072,"notVuln":185761,"affectedFNCount":173},{"customerName":"UMC - UKRAINIAN MOBILE COMMUNICATIONS","totVuln":6426,"potVuln":9240,"notVuln":99737,"affectedFNCount":58},{"customerName":"RIO TINTO LTD","totVuln":6326,"potVuln":60469,"notVuln":437407,"affectedFNCount":225},{"customerName":"LINKNET","totVuln":6080,"potVuln":11097,"notVuln":121049,"affectedFNCount":99},{"customerName":"OTE","totVuln":5987,"potVuln":13350,"notVuln":206337,"affectedFNCount":153},{"customerName":"VERIZON WIRELESS","totVuln":5900,"potVuln":32351,"notVuln":738903,"affectedFNCount":76},{"customerName":"VODAFONE PORTUGAL","totVuln":5519,"potVuln":143802,"notVuln":1284051,"affectedFNCount":200},{"customerName":"TELGUA","totVuln":5334,"potVuln":12876,"notVuln":126698,"affectedFNCount":161},{"customerName":"WAL-MART CSPC","totVuln":5243,"potVuln":202736,"notVuln":2037301,"affectedFNCount":163},{"customerName":"CTBC BANK CO LTD","totVuln":5085,"potVuln":32706,"notVuln":315701,"affectedFNCount":125},{"customerName":"DUKE ENERGY","totVuln":5044,"potVuln":148279,"notVuln":1188383,"affectedFNCount":177},{"customerName":"WAL-MART INTL","totVuln":4860,"potVuln":184353,"notVuln":1757205,"affectedFNCount":152},{"customerName":"VIRGIN MEDIA FINANCE PLC","totVuln":4677,"potVuln":13505,"notVuln":107028,"affectedFNCount":170},{"customerName":"PPG INDUSTRIES INC","totVuln":4533,"potVuln":50354,"notVuln":278307,"affectedFNCount":103},{"customerName":"LIBERTY LATAM","totVuln":4459,"potVuln":11317,"notVuln":95320,"affectedFNCount":211},{"customerName":"NOS COMUNICACOES","totVuln":4394,"potVuln":12768,"notVuln":147575,"affectedFNCount":127},{"customerName":"VZW MITG YR 1","totVuln":4384,"potVuln":1464,"notVuln":0,"affectedFNCount":2},{"customerName":"MIGROS-GENOSSENSCHAFTS-BUND","totVuln":4360,"potVuln":194364,"notVuln":727847,"affectedFNCount":140},{"customerName":"ALTICE USA","totVuln":4099,"potVuln":41131,"notVuln":417889,"affectedFNCount":175},{"customerName":"RIO TINTO OPERATIONS","totVuln":3982,"potVuln":92810,"notVuln":761379,"affectedFNCount":242},{"customerName":"DISNEY CORPORATION","totVuln":3876,"potVuln":146547,"notVuln":1210165,"affectedFNCount":182},{"customerName":"KPN/RWS","totVuln":3871,"potVuln":121990,"notVuln":462639,"affectedFNCount":202},{"customerName":"STATE OF NORTH CAROLINA","totVuln":3839,"potVuln":28664,"notVuln":410732,"affectedFNCount":182},{"customerName":"VERIZON ENSE","totVuln":3623,"potVuln":45637,"notVuln":336626,"affectedFNCount":84},{"customerName":"PACIFIC GAS AND ELECTRIC","totVuln":3502,"potVuln":40687,"notVuln":438871,"affectedFNCount":122},{"customerName":"CONSOLIDATED COMMUNICATIONS","totVuln":3472,"potVuln":14127,"notVuln":88313,"affectedFNCount":107},{"customerName":"STC KSA-IT NETWORK","totVuln":3425,"potVuln":13583,"notVuln":187488,"affectedFNCount":174},{"customerName":"CERNER CORPORATION","totVuln":3278,"potVuln":46454,"notVuln":366632,"affectedFNCount":170},{"customerName":"BANCO ITAU BRAZIL","totVuln":3154,"potVuln":25927,"notVuln":178647,"affectedFNCount":215},{"customerName":"PRORAIL VERKEERSLEIDING NOORD","totVuln":3106,"potVuln":22328,"notVuln":178076,"affectedFNCount":183},{"customerName":"HSBC","totVuln":3074,"potVuln":235045,"notVuln":2437168,"affectedFNCount":151},{"customerName":"AXTEL SAB DE CV","totVuln":3009,"potVuln":16257,"notVuln":114625,"affectedFNCount":156},{"customerName":"OI","totVuln":3009,"potVuln":18154,"notVuln":54963,"affectedFNCount":145},{"customerName":"INTESA SANPAOLO","totVuln":3008,"potVuln":51021,"notVuln":491418,"affectedFNCount":164},{"customerName":"TELEFONICA EL SALVADOR","totVuln":2769,"potVuln":7770,"notVuln":61558,"affectedFNCount":63},{"customerName":"TIM BRASIL","totVuln":2742,"potVuln":36155,"notVuln":101783,"affectedFNCount":104},{"customerName":"NETWORK RAIL LTD","totVuln":2728,"potVuln":37352,"notVuln":256505,"affectedFNCount":131},{"customerName":"NOVARTIS PHARMA AG","totVuln":2710,"potVuln":69192,"notVuln":483480,"affectedFNCount":165},{"customerName":"AIRPORTS OF THAILAND PUBLIC COMPANY LIMITED","totVuln":2651,"potVuln":9784,"notVuln":54132,"affectedFNCount":114},{"customerName":"PSA CORPORATION LTD","totVuln":2642,"potVuln":27096,"notVuln":402357,"affectedFNCount":214},{"customerName":"VALE SA","totVuln":2616,"potVuln":12514,"notVuln":49627,"affectedFNCount":134},{"customerName":"AT&T IT-CORE","totVuln":2591,"potVuln":19092,"notVuln":222181,"affectedFNCount":109},{"customerName":"TELENOR NORWAY- NORKRING","totVuln":2585,"potVuln":2840,"notVuln":42579,"affectedFNCount":82},{"customerName":"KAISER FOUNDATION HEALTH PLAN INC","totVuln":2562,"potVuln":204709,"notVuln":3436452,"affectedFNCount":140},{"customerName":"ADNOC GROUP","totVuln":2539,"potVuln":46938,"notVuln":460956,"affectedFNCount":142},{"customerName":"ENTEL BOLIVIA IP NGN","totVuln":2467,"potVuln":7687,"notVuln":56529,"affectedFNCount":169},{"customerName":"OREGON DOIT","totVuln":2454,"potVuln":41371,"notVuln":164393,"affectedFNCount":117},{"customerName":"GENERAL MOTORS GLOBAL","totVuln":2385,"potVuln":234227,"notVuln":1781839,"affectedFNCount":182},{"customerName":"TELIA CARRIER","totVuln":2380,"potVuln":7454,"notVuln":67224,"affectedFNCount":80},{"customerName":"POSTE ITALIANE","totVuln":2363,"potVuln":11733,"notVuln":112623,"affectedFNCount":123},{"customerName":"ATT MOBILITY","totVuln":2357,"potVuln":42700,"notVuln":48290,"affectedFNCount":76},{"customerName":"TELKOMSEL","totVuln":2281,"potVuln":6568,"notVuln":79225,"affectedFNCount":92},{"customerName":"METROLINX","totVuln":2219,"potVuln":16718,"notVuln":121900,"affectedFNCount":142},{"customerName":"UNILEVER","totVuln":2204,"potVuln":57596,"notVuln":550408,"affectedFNCount":80},{"customerName":"WEBANK","totVuln":2169,"potVuln":5154,"notVuln":34035,"affectedFNCount":56},{"customerName":"KRUNGTHAI COMPUTER SERVICES COMPANY LTD","totVuln":2115,"potVuln":29494,"notVuln":248280,"affectedFNCount":139},{"customerName":"YPF SA","totVuln":2104,"potVuln":23320,"notVuln":206420,"affectedFNCount":194},{"customerName":"SKY NETWORK SERVICES","totVuln":2093,"potVuln":32625,"notVuln":275004,"affectedFNCount":232},{"customerName":"UNITEL","totVuln":2087,"potVuln":3390,"notVuln":49956,"affectedFNCount":86},{"customerName":"IBERDROLA SA","totVuln":2076,"potVuln":18496,"notVuln":128376,"affectedFNCount":99},{"customerName":"VODAFONE GREECE","totVuln":2022,"potVuln":9610,"notVuln":69326,"affectedFNCount":137},{"customerName":"XL AXIATA INDONESIA","totVuln":2013,"potVuln":19144,"notVuln":129315,"affectedFNCount":156},{"customerName":"COMPANHIA ENERGETICA DE MINAS GERAIS CEMIG","totVuln":2005,"potVuln":8327,"notVuln":87039,"affectedFNCount":123},{"customerName":"VODACOM CDN","totVuln":1985,"potVuln":2582,"notVuln":35830,"affectedFNCount":119},{"customerName":"VERSATEL SUED GMBH","totVuln":1971,"potVuln":256693,"notVuln":3136316,"affectedFNCount":100},{"customerName":"PROVIDENCE/ST.JOSEPH","totVuln":1954,"potVuln":39346,"notVuln":377805,"affectedFNCount":158},{"customerName":"AMAZON","totVuln":1912,"potVuln":52140,"notVuln":671164,"affectedFNCount":80},{"customerName":"STANELY WORKS","totVuln":1908,"potVuln":46969,"notVuln":199400,"affectedFNCount":125},{"customerName":"DEUTSCHE BAHN AG","totVuln":1889,"potVuln":219700,"notVuln":2002834,"affectedFNCount":96},{"customerName":"BHARTI AIRTEL - MPLS","totVuln":1832,"potVuln":54629,"notVuln":170743,"affectedFNCount":85},{"customerName":"PETROBRAS BRAZIL","totVuln":1831,"potVuln":49556,"notVuln":356143,"affectedFNCount":163},{"customerName":"MGM RESORTS INTERNATIONAL","totVuln":1786,"potVuln":264193,"notVuln":2191407,"affectedFNCount":140},{"customerName":"THERMO FISHER SCIENTIFIC","totVuln":1744,"potVuln":63405,"notVuln":363803,"affectedFNCount":124},{"customerName":"BOEHRINGER INGELHEIM GMBH","totVuln":1732,"potVuln":13280,"notVuln":305804,"affectedFNCount":51},{"customerName":"MICROSOFT AZURE","totVuln":1726,"potVuln":717875,"notVuln":8503584,"affectedFNCount":87},{"customerName":"NORTHWELL HEALTH","totVuln":1723,"potVuln":46124,"notVuln":430791,"affectedFNCount":188},{"customerName":"CHINA UNIONPAY DATA SERVICES COMPANY LTD","totVuln":1639,"potVuln":5219,"notVuln":43211,"affectedFNCount":104},{"customerName":"CLARO SA","totVuln":1613,"potVuln":9741,"notVuln":114580,"affectedFNCount":202},{"customerName":"LIBERTY GLOBAL EUROPE NV","totVuln":1604,"potVuln":4187,"notVuln":62320,"affectedFNCount":143},{"customerName":"FIS GLOBAL","totVuln":1544,"potVuln":48718,"notVuln":539551,"affectedFNCount":207},{"customerName":"PCCW GLOBAL","totVuln":1535,"potVuln":7893,"notVuln":102600,"affectedFNCount":113},{"customerName":"AXA","totVuln":1513,"potVuln":23879,"notVuln":159680,"affectedFNCount":193},{"customerName":"THIRDPACKET/CMS","totVuln":1497,"potVuln":4032,"notVuln":3071,"affectedFNCount":80},{"customerName":"SMART COMM","totVuln":1494,"potVuln":2992,"notVuln":27373,"affectedFNCount":98},{"customerName":"BANK OF NEW YORK MELLON","totVuln":1485,"potVuln":66113,"notVuln":302958,"affectedFNCount":174},{"customerName":"MTN NIGERIA","totVuln":1484,"potVuln":8506,"notVuln":60294,"affectedFNCount":174},{"customerName":"SAUDI TELECOM PUBLIC SECTOR","totVuln":1482,"potVuln":2777,"notVuln":46873,"affectedFNCount":148},{"customerName":"NBC (NOS)","totVuln":1459,"potVuln":27593,"notVuln":329047,"affectedFNCount":190},{"customerName":"STATENS IT","totVuln":1451,"potVuln":31779,"notVuln":204156,"affectedFNCount":102},{"customerName":"BOEING DISTRIBUTION SERVICES","totVuln":1384,"potVuln":3239,"notVuln":21684,"affectedFNCount":159},{"customerName":"DELTA TECHNOLOGY","totVuln":1321,"potVuln":48012,"notVuln":361241,"affectedFNCount":141},{"customerName":"OPTUS CONSUMER MOBILE","totVuln":1296,"potVuln":39701,"notVuln":188630,"affectedFNCount":100},{"customerName":"YOOX NET-A-PORTER GROUP SPA","totVuln":1292,"potVuln":5919,"notVuln":26192,"affectedFNCount":85},{"customerName":"TNSI BACKBONE","totVuln":1288,"potVuln":77758,"notVuln":608557,"affectedFNCount":129},{"customerName":"BT WIFI","totVuln":1288,"potVuln":91785,"notVuln":289723,"affectedFNCount":107},{"customerName":"STATE STREET BANK","totVuln":1266,"potVuln":29353,"notVuln":283005,"affectedFNCount":149},{"customerName":"ALLINA HEALTH SYSTEM","totVuln":1257,"potVuln":23216,"notVuln":251857,"affectedFNCount":112},{"customerName":"FIRST NATIONAL BANK","totVuln":1249,"potVuln":13298,"notVuln":124234,"affectedFNCount":167},{"customerName":"NYPD","totVuln":1243,"potVuln":17237,"notVuln":155039,"affectedFNCount":153},{"customerName":"EXXON MOBIL - GLOBAL","totVuln":1242,"potVuln":84775,"notVuln":773146,"affectedFNCount":155},{"customerName":"TELEKOM MALAYSIA","totVuln":1218,"potVuln":6860,"notVuln":43024,"affectedFNCount":100},{"customerName":"VODAFONE IRELAND","totVuln":1208,"potVuln":3828,"notVuln":24944,"affectedFNCount":109},{"customerName":"CTTI","totVuln":1195,"potVuln":8681,"notVuln":39975,"affectedFNCount":155},{"customerName":"SAMSUNG SEMICONDUCTOR, INC.","totVuln":1169,"potVuln":8362,"notVuln":66374,"affectedFNCount":87},{"customerName":"FIDELITY FTG","totVuln":1161,"potVuln":17608,"notVuln":425840,"affectedFNCount":84},{"customerName":"ENEL","totVuln":1128,"potVuln":31260,"notVuln":236572,"affectedFNCount":132},{"customerName":"TENCENT","totVuln":1108,"potVuln":2740,"notVuln":23068,"affectedFNCount":76},{"customerName":"BUNDESAGENTUR FUR ARBEIT","totVuln":1104,"potVuln":5594,"notVuln":96494,"affectedFNCount":84},{"customerName":"BANK OF COMMUNICATIONS, CO LTD","totVuln":1100,"potVuln":4332,"notVuln":36178,"affectedFNCount":86},{"customerName":"ALINMA BANK","totVuln":1096,"potVuln":1064,"notVuln":21744,"affectedFNCount":56},{"customerName":"SHELL OFFSHORE SERVICES COMPANY","totVuln":1079,"potVuln":4827,"notVuln":55468,"affectedFNCount":70},{"customerName":"WOODSIDE ENERGY LTD","totVuln":1078,"potVuln":13885,"notVuln":100788,"affectedFNCount":185},{"customerName":"NORLYS","totVuln":1077,"potVuln":19062,"notVuln":305222,"affectedFNCount":83}],"lastUpdated":"2026-04-27T17:15:49.518Z"}