{"period":"2025","count":20,"total":135,"offset":0,"limit":20,"hasMore":true,"data":[{"fieldNoticeId":"FN70496","fnTitle":"FN70496 - Cisco IP Phones Might Fail to Operate Correctly Due to Expired Manufacturer Installed Certificate - Configuration Change Recommended","fnType":"Hardware","firstPublished":"2020-02-03T18:30:00.000Z","totVuln":3249961,"potVuln":0,"notVuln":0},{"fieldNoticeId":"FN70546","fnTitle":"FN70546 - Webex Calling (formerly Spark Call) Does Not Work With HW V15 or Later 8811/8841/8851/8861 and HW V20 or Later 7821/7841/7861 IP Phones - Replace on Failure","fnType":"Hardware","firstPublished":"2020-04-26T18:30:00.000Z","totVuln":2496281,"potVuln":0,"notVuln":0},{"fieldNoticeId":"FN70464","fnTitle":"FN70464 - ASR 900/NCS 4200 with RSP2 and ASR 920/NCS 4201/4202 Products Do Not Support Software Version Rollback from Certain Cisco IOS XE Versions - Workaround Provided","fnType":"Hardware","firstPublished":"2019-12-09T18:30:00.000Z","totVuln":222554,"potVuln":0,"notVuln":0},{"fieldNoticeId":"FN72270","fnTitle":"FN72270 - PAK Licenses Will Not Be Supported on ASR 920 and NCS 520 Routers with Cisco IOS XE Release 17.7.x and Later - Software Upgrade Recommended","fnType":"Hardware","firstPublished":"2022-02-21T18:30:00.000Z","totVuln":194379,"potVuln":0,"notVuln":0},{"fieldNoticeId":"FN72399","fnTitle":"FN72399 - Catalyst 2960X/2960XR: Counterfeit Detection With the SUDI Verification Feature Supported in Release 15.2(7)E4 or Later - Software Upgrade Recommended","fnType":"Software","firstPublished":"2022-04-28T18:30:00.000Z","totVuln":147036,"potVuln":13208,"notVuln":2639929},{"fieldNoticeId":"FN64190","fnTitle":"FN64190 - Cisco IOS XE - Show commands on Cisco IOS XE based platforms might not report true platform memory usage - Software Upgrade Recommended","fnType":"Software","firstPublished":"2016-10-06T18:30:00.000Z","totVuln":127277,"potVuln":105,"notVuln":5238409},{"fieldNoticeId":"FN72294","fnTitle":"FN72294 - PAK Licenses Will Not Be Supported on ASR 903/902/907/914 Routers with Cisco IOS XE Release 17.7.x and Later - Software Upgrade Recommended","fnType":"Hardware","firstPublished":"2022-02-17T18:30:00.000Z","totVuln":113128,"potVuln":0,"notVuln":0},{"fieldNoticeId":"FN70320","fnTitle":"FN70320 - Nexus 3000, 3500, and 9000 BIOS Upgrade Might Fail at Install - Software Upgrade Recommended","fnType":"Software","firstPublished":"2018-11-11T18:30:00.000Z","totVuln":69203,"potVuln":7810,"notVuln":1294700},{"fieldNoticeId":"FN74186","fnTitle":"FN74186 - Certain Operations on Nexus Dashboard Insights May Cause an ACI Switch Reload  - Software Upgrade Recommended","fnType":"Software","firstPublished":"2024-10-10T18:30:00.000Z","totVuln":49085,"potVuln":0,"notVuln":314550},{"fieldNoticeId":"FN64131","fnTitle":"FN64131 - RSP720 Accelerated Battery Discharge While Unplugged/Powered Off - Replace on Failure","fnType":"Hardware","firstPublished":"2016-06-07T18:30:00.000Z","totVuln":29942,"potVuln":0,"notVuln":0},{"fieldNoticeId":"FN64191","fnTitle":"FN64191 - Catalyst 3850/3650 Switches That Run Cisco IOS XE Releases 3.6.5E/3.7.4E or Earlier Might Exhibit High CPU Usage - Workaround Provided","fnType":"Software","firstPublished":"2016-08-28T18:30:00.000Z","totVuln":25310,"potVuln":21245,"notVuln":5321988},{"fieldNoticeId":"FN70538","fnTitle":"FN70538 - Required Upgrade to a Later ACI Software Release to Protect Against Premature Wear Out of Solid State Drives - Software Upgrade Recommended","fnType":"Software","firstPublished":"2020-03-23T18:30:00.000Z","totVuln":18671,"potVuln":0,"notVuln":344501},{"fieldNoticeId":"FN70605","fnTitle":"FN70605 - Some NCS 560 RSP4 Might Fail to Boot After FPD Upgrade - Workaround Provided","fnType":"Hardware","firstPublished":"2021-03-31T18:30:00.000Z","totVuln":18232,"potVuln":0,"notVuln":0},{"fieldNoticeId":"FN70358","fnTitle":"FN70358 - NCS 2000 Single Shelf Controller-Replacement of Release 11 Controller With Pre-Release 11 Controller and Vice Versa Causes Traffic Loss - Workaround Provided","fnType":"Hardware","firstPublished":"2019-02-24T18:30:00.000Z","totVuln":17103,"potVuln":0,"notVuln":0},{"fieldNoticeId":"FN72242","fnTitle":"FN72242 - Limited Number of Cisco Catalyst IR1100 Rugged Series Routers Might Fail to Boot When Upgrading to Cisco IOS XE 17.5.1 - Software Upgrade Recommended","fnType":"Hardware","firstPublished":"2021-09-07T18:30:00.000Z","totVuln":13646,"potVuln":0,"notVuln":0},{"fieldNoticeId":"FN70130","fnTitle":"FN70130 - ASR1000 - Power Supply Unit State is Incorrectly Displayed - Software Upgrade Recommended","fnType":"Software","firstPublished":"2018-04-10T18:30:00.000Z","totVuln":13132,"potVuln":21225,"notVuln":5335564},{"fieldNoticeId":"FN72278","fnTitle":"FN72278 - Some C9120 and C9115 APs Stuck in Bootup with 'Uncorrectable ECC Error' Displayed - BIOS/Firmware Upgrade Recommended","fnType":"Hardware","firstPublished":"2021-11-07T18:30:00.000Z","totVuln":12261,"potVuln":3,"notVuln":1410248},{"fieldNoticeId":"FN72415","fnTitle":"FN72415 - QuoVadis Root CA 2 Decommission Might Affect AireOS Smart Licensing and Smart Call Home, and Mobility Express Software Downloads from Cisco.com - Software Upgrade Recommended","fnType":"Software","firstPublished":"2022-07-25T18:30:00.000Z","totVuln":11987,"potVuln":0,"notVuln":20879},{"fieldNoticeId":"FN70610","fnTitle":"FN70610 - Cisco Identity Services Engine MAC Address Lookup Might Fail with Android 10, Android 11, and Apple iOS 14 Devices Due to the Use of MAC Randomization on the Mobile Client Devices - Workaround Provided","fnType":"Software","firstPublished":"2020-09-14T18:30:00.000Z","totVuln":10947,"potVuln":0,"notVuln":0},{"fieldNoticeId":"FN72304","fnTitle":"FN72304 - ISR 1000 with ROMMON 17.6.1 Cannot Be Downgraded to Earlier Versions - Software Upgrade Recommended","fnType":"Software","firstPublished":"2022-01-25T18:30:00.000Z","totVuln":10381,"potVuln":512625,"notVuln":4844164}],"lastUpdated":"2025-11-28T05:03:41.586Z"}